Visualizing in the Tidyverse
…
---

```r
gender_age_height_drink
```

```
## # A tibble: 58 x 5
## # Groups:   sex, age_group [10]
##    sex   age_group height_group     n drinks
##    <chr> <chr>     <chr>        <int>  <dbl>
##  1 f     19-29     149-           163 0.0920
##  2 f     19-29     150-159       1963 0.102 
##  3 f     19-29     160-169       5620 0.110 
##  4 f     19-29     170-179       3113 0.130 
##  5 f     19-29     180-189        310 0.145 
##  6 f     19-29     190+            19 0.474 
##  7 f     30-39     149-            80 0.0625
##  8 f     30-39     150-159       1293 0.0673
##  9 f     30-39     160-169       4109 0.0810
## 10 f     30-39     170-179       2231 0.0852
## # ... with 48 more rows
```
…
