Modeling in the Tidyverse
…
---

Notice how easy it is to get the model's results in a tidy way using the `tidy()` function:

```r
tidy(mod_ridge)
```

```
## # A tibble: 5,200 x 5
##    term                 step  estimate lambda dev.ratio
##    <chr>               <dbl>     <dbl>  <dbl>     <dbl>
##  1 (Intercept)             1  1.49e+ 2 43051.  2.56e-36
##  2 sexM                    1  8.47e-35 43051.  2.56e-36
##  3 eventSB                 1  2.53e-36 43051.  2.56e-36
##  4 eventSBD                1 -2.59e-35 43051.  2.56e-36
##  5 equipmentSingle-ply     1  2.85e-35 43051.  2.56e-36
##  6 age                     1 -5.30e-37 43051.  2.56e-36
##  7 divisionJuniors         1 -4.55e-36 43051.  2.56e-36
##  8 divisionLight           1 -1.68e-35 43051.  2.56e-36
##  9 divisionMasters 1       1 -2.96e-36 43051.  2.56e-36
## 10 divisionMasters 2       1 -1.39e-35 43051.  2.56e-36
## # ... with 5,190 more rows
```
…
