Tidy Data Wrangling - Part A
…
---

## `filter()` and `select()`

Filter only women, select only age and height:

```r
okcupid %>%
  filter(sex == "f") %>%
  select(age, height)
```

```
## # A tibble: 24,117 x 2
##      age height
##    <dbl>  <dbl>
##  1    32     65
##  2    31     65
##  3    24     67
##  4    30     66
##  5    29     62
##  6    39     65
##  7    26     64
##  8    27     67
##  9    22     67
## 10    27     64
## # ... with 24,107 more rows
```

---

Same but income over 100K, and select all essay questions:

```r
okcupid %>%
  filter(sex == "f", income > 100000) %>%
  select(starts_with("essay"))
```

```
## # A tibble: 208 x 10
##    essay0  essay1  essay2  essay3 essay4 essay5 essay6 essay7 essay8 essay9
##    <chr>   <chr>   <chr>   <chr>  <chr>  <chr>  <chr>  <chr>  <chr>  <chr> 
##  1 "i lov~ "being~ "scraw~ "my b~ "musi~ "vege~ "maki~ "kick~ "wow,~ "if y~
##  2 i'm si~ curren~ eating~ my po~ pride~ nothi~ my ne~ eatin~ i'm n~ you w~
##  3 "welco~ "piano~ "singi~ "my h~ "book~ "touc~ diffe~ <NA>   <NA>   you f~
##  4 "pureb~ "by da~ "being~ my ha~ "to s~ "- wa~ my ne~ "i tr~ ummmm~ "you ~
##  5 "i was~ "chick~ "using~ lips ~ "arma~ lust,~ enter~ makin~ <NA>   "you ~
##  6 "hello~ "i tal~ "anyth~ "my a~ "book~ "my g~ "ever~ "i wo~ <NA>   "if y~
##  7 "life'~ "i'm j~ "getti~ its b~ "otis~ "1. s~ "the ~ "oh m~ i don~ if yo~
##  8 "every~ "livin~ being ~ my ey~ "dubs~ "dirt~ "how ~ "reco~ i lov~ "you ~
##  9 love t~ daily ~ "i am ~ my sm~ love ~ masca~ if i ~ <NA>   "i am~ <NA>  
## 10 "<b>ph~ "i am ~ "pissi~ my sm~ "book~ "my d~ who p~ "tota~ "my d~ "if y~
## # ... with 198 more rows
```

---

Same but using a range of columns:

```r
okcupid %>%
  filter(sex == "f", income > 100000) %>%
  select(essay0:essay9)
```

```
## # A tibble: 208 x 10
##    essay0  essay1  essay2  essay3 essay4 essay5 essay6 essay7 essay8 essay9
##    <chr>   <chr>   <chr>   <chr>  <chr>  <chr>  <chr>  <chr>  <chr>  <chr> 
##  1 "i lov~ "being~ "scraw~ "my b~ "musi~ "vege~ "maki~ "kick~ "wow,~ "if y~
##  2 i'm si~ curren~ eating~ my po~ pride~ nothi~ my ne~ eatin~ i'm n~ you w~
##  3 "welco~ "piano~ "singi~ "my h~ "book~ "touc~ diffe~ <NA>   <NA>   you f~
##  4 "pureb~ "by da~ "being~ my ha~ "to s~ "- wa~ my ne~ "i tr~ ummmm~ "you ~
##  5 "i was~ "chick~ "using~ lips ~ "arma~ lust,~ enter~ makin~ <NA>   "you ~
##  6 "hello~ "i tal~ "anyth~ "my a~ "book~ "my g~ "ever~ "i wo~ <NA>   "if y~
##  7 "life'~ "i'm j~ "getti~ its b~ "otis~ "1. s~ "the ~ "oh m~ i don~ if yo~
##  8 "every~ "livin~ being ~ my ey~ "dubs~ "dirt~ "how ~ "reco~ i lov~ "you ~
##  9 love t~ daily ~ "i am ~ my sm~ love ~ masca~ if i ~ <NA>   "i am~ <NA>  
## 10 "<b>ph~ "i am ~ "pissi~ my sm~ "book~ "my d~ who p~ "tota~ "my d~ "if y~
## # ... with 198 more rows
```
…
class: section-slide

# Beyond Basics

---

## A simple answer to the religion question?

```r
okcupid %>% count(religion)
```

```
## # A tibble: 46 x 2
##    religion                                      n
##    <chr>                                     <int>
##  1 agnosticism                                2724
##  2 agnosticism and laughing about it          2496
##  3 agnosticism and somewhat serious about it   642
##  4 agnosticism and very serious about it       314
##  5 agnosticism but not too serious about it   2636
##  6 atheism                                    2175
##  7 atheism and laughing about it              2074
##  8 atheism and somewhat serious about it       848
##  9 atheism and very serious about it           570
## 10 atheism but not too serious about it       1318
## # ... with 36 more rows
```
…
---

### Getting extreme observations with `top_n()` and `top_frac()`

```r
okcupid %>%
  select(sex, age) %>%
  group_by(sex) %>%
  top_n(3, age)
```

```
## # A tibble: 33 x 2
## # Groups:   sex [2]
##    sex     age
##    <chr> <dbl>
##  1 f       110
##  2 m        69
##  3 m        69
##  4 m        69
##  5 m        69
##  6 m        69
##  7 m        69
##  8 m        69
##  9 m        69
## 10 m        69
## # ... with 23 more rows
```
…
---

### The `_at()`, `_if()` and `_all()` families

Many of the verbs we've seen come with these suffixes:

```r
okcupid %>%
  select_if(is.numeric)
```

```
## # A tibble: 59,946 x 4
##      age height income height_cm
##    <dbl>  <dbl>  <dbl>     <dbl>
##  1    22     75     -1      190.
##  2    35     70  80000      178.
##  3    38     68     -1      173.
##  4    23     71  20000      180.
##  5    29     66     -1      168.
##  6    29     67     -1      170.
##  7    32     65     -1      165.
##  8    31     65     -1      165.
##  9    24     67     -1      170.
## 10    37     65     -1      165.
## # ... with 59,936 more rows
```

Do you see something strange?

---

Take care of those missing observations for me without breaking the pipe:

```r
okcupid %>%
  na_if(-1) %>%
  select_if(is.numeric)
```

```
## # A tibble: 59,946 x 4
##      age height income height_cm
##    <dbl>  <dbl>  <dbl>     <dbl>
##  1    22     75     NA      190.
##  2    35     70  80000      178.
##  3    38     68     NA      173.
##  4    23     71  20000      180.
##  5    29     66     NA      168.
##  6    29     67     NA      170.
##  7    32     65     NA      165.
##  8    31     65     NA      165.
##  9    24     67     NA      170.
## 10    37     65     NA      165.
## # ... with 59,936 more rows
```

---

Transform all my numeric columns with `log`:

```r
okcupid %>%
  na_if(-1) %>%
  select_if(is.numeric) %>%
  mutate_all(log)
```

```
## # A tibble: 59,946 x 4
##      age height income height_cm
##    <dbl>  <dbl>  <dbl>     <dbl>
##  1  3.09   4.32  NA         5.25
##  2  3.56   4.25  11.3       5.18
##  3  3.64   4.22  NA         5.15
##  4  3.14   4.26   9.90      5.19
##  5  3.37   4.19  NA         5.12
##  6  3.37   4.20  NA         5.14
##  7  3.47   4.17  NA         5.11
##  8  3.43   4.17  NA         5.11
##  9  3.18   4.20  NA         5.14
## 10  3.61   4.17  NA         5.11
## # ... with 59,936 more rows
```
…
---

Same but add `sqrt` and keep original columns:

```r
okcupid %>%
  na_if(-1) %>%
  select_if(is.numeric) %>%
  mutate_all(list(logged = log, sqrted = sqrt))
```

```
## # A tibble: 59,946 x 12
##      age height income height_cm age_logged height_logged income_logged
##    <dbl>  <dbl>  <dbl>     <dbl>      <dbl>         <dbl>         <dbl>
##  1    22     75     NA      190.       3.09          4.32         NA   
##  2    35     70  80000      178.       3.56          4.25         11.3 
##  3    38     68     NA      173.       3.64          4.22         NA   
##  4    23     71  20000      180.       3.14          4.26          9.90
##  5    29     66     NA      168.       3.37          4.19         NA   
##  6    29     67     NA      170.       3.37          4.20         NA   
##  7    32     65     NA      165.       3.47          4.17         NA   
##  8    31     65     NA      165.       3.43          4.17         NA   
##  9    24     67     NA      170.       3.18          4.20         NA   
## 10    37     65     NA      165.       3.61          4.17         NA   
## # ... with 59,936 more rows, and 5 more variables: height_cm_logged <dbl>,
## #   age_sqrted <dbl>, height_sqrted <dbl>, income_sqrted <dbl>,
## #   height_cm_sqrted <dbl>
```

---

Same but take care of zeros under `log`:

```r
okcupid %>%
  na_if(-1) %>%
  select_if(is.numeric) %>%
  mutate_all(list(logged = function(x) log(x + 1), sqrted = sqrt))
```

```
## # A tibble: 59,946 x 12
##      age height income height_cm age_logged height_logged income_logged
##    <dbl>  <dbl>  <dbl>     <dbl>      <dbl>         <dbl>         <dbl>
##  1    22     75     NA      190.       3.14          4.33         NA   
##  2    35     70  80000      178.       3.58          4.26         11.3 
##  3    38     68     NA      173.       3.66          4.23         NA   
##  4    23     71  20000      180.       3.18          4.28          9.90
##  5    29     66     NA      168.       3.40          4.20         NA   
##  6    29     67     NA      170.       3.40          4.22         NA   
##  7    32     65     NA      165.       3.50          4.19         NA   
##  8    31     65     NA      165.       3.47          4.19         NA   
##  9    24     67     NA      170.       3.22          4.22         NA   
## 10    37     65     NA      165.       3.64          4.19         NA   
## # ... with 59,936 more rows, and 5 more variables: height_cm_logged <dbl>,
## #   age_sqrted <dbl>, height_sqrted <dbl>, income_sqrted <dbl>,
## #   height_cm_sqrted <dbl>
```
---

Same but select only non-negative columns:

```r
is_non_negative <- function(x) is.numeric(x) && (is.na(x) || x >= 0)

okcupid %>%
  na_if(-1) %>%
  select_if(is_non_negative) %>%
  mutate_all(list(logged = function(x) log(x + 1), sqrted = sqrt))
```

```
## # A tibble: 59,946 x 12
##      age height income height_cm age_logged height_logged income_logged
##    <dbl>  <dbl>  <dbl>     <dbl>      <dbl>         <dbl>         <dbl>
##  1    22     75     NA      190.       3.14          4.33         NA   
##  2    35     70  80000      178.       3.58          4.26         11.3 
##  3    38     68     NA      173.       3.66          4.23         NA   
##  4    23     71  20000      180.       3.18          4.28          9.90
##  5    29     66     NA      168.       3.40          4.20         NA   
##  6    29     67     NA      170.       3.40          4.22         NA   
##  7    32     65     NA      165.       3.50          4.19         NA   
##  8    31     65     NA      165.       3.47          4.19         NA   
##  9    24     67     NA      170.       3.22          4.22         NA   
## 10    37     65     NA      165.       3.64          4.19         NA   
## # ... with 59,936 more rows, and 5 more variables: height_cm_logged <dbl>,
## #   age_sqrted <dbl>, height_sqrted <dbl>, income_sqrted <dbl>,
## #   height_cm_sqrted <dbl>
```

---

On second thought `log` would probably be appropriate just for `income` and `height_cm` (not really, just for demo):

```r
okcupid %>%
  na_if(-1) %>%
  mutate_at(c("income", "height_cm"),
            list(logged = function(x) log(x + 1), sqrted = sqrt)) %>%
  select(ends_with("logged"), ends_with("sqrted"))
```

```
## # A tibble: 59,946 x 4
##    income_logged height_cm_logged income_sqrted height_cm_sqrted
##            <dbl>            <dbl>         <dbl>            <dbl>
##  1         NA                5.25           NA              13.8
##  2         11.3              5.19          283.             13.3
##  3         NA                5.16           NA              13.1
##  4          9.90             5.20          141.             13.4
##  5         NA                5.13           NA              12.9
##  6         NA                5.14           NA              13.0
##  7         NA                5.11           NA              12.8
##  8         NA                5.11           NA              12.8
##  9         NA                5.14           NA              13.0
## 10         NA                5.11           NA              12.8
## # ... with 59,936 more rows
```
…
---
### Making a `data.frame` function pipeable

```r
transform_all_my_numerics <- function(df, transformation) {
  df %>% mutate_if(is.numeric, transformation)
}

okcupid %>%
  transform_all_my_numerics(log) %>%
  select_if(is.numeric)
```

```
## # A tibble: 59,946 x 4
##      age height income height_cm
##    <dbl>  <dbl>  <dbl>     <dbl>
##  1  3.09   4.32  NA         5.25
##  2  3.56   4.25  11.3       5.18
##  3  3.64   4.22  NA         5.15
##  4  3.14   4.26   9.90      5.19
##  5  3.37   4.19  NA         5.12
##  6  3.37   4.20  NA         5.14
##  7  3.47   4.17  NA         5.11
##  8  3.43   4.17  NA         5.11
##  9  3.18   4.20  NA         5.14
## 10  3.61   4.17  NA         5.11
## # ... with 59,936 more rows
```
…
