Wrangling Data in the Tidyverse
…
---

## `filter()` and `select()`

Filter only women, select only age and height:

```r
okcupid %>%
  filter(sex == "f") %>%
  select(age, height)
```

```
## # A tibble: 24,117 x 2
##      age height
##    <dbl>  <dbl>
##  1    32     65
##  2    31     65
##  3    24     67
##  4    30     66
##  5    29     62
##  6    39     65
##  7    26     64
##  8    27     67
##  9    22     67
## 10    27     64
## # ... with 24,107 more rows
```

---

Same but income over 100K, and select all essay questions:

```r
okcupid %>%
  filter(sex == "f", income > 100000) %>%
  select(starts_with("essay"))
```

```
## # A tibble: 208 x 10
##    essay0  essay1  essay2  essay3 essay4 essay5 essay6 essay7 essay8 essay9
##    <chr>   <chr>   <chr>   <chr>  <chr>  <chr>  <chr>  <chr>  <chr>  <chr> 
##  1 "i lov~ "being~ "scraw~ "my b~ "musi~ "vege~ "maki~ "kick~ "wow,~ "if y~
##  2 i'm si~ curren~ eating~ my po~ pride~ nothi~ my ne~ eatin~ i'm n~ you w~
##  3 "welco~ "piano~ "singi~ "my h~ "book~ "touc~ diffe~ <NA>   <NA>   you f~
##  4 "pureb~ "by da~ "being~ my ha~ "to s~ "- wa~ my ne~ "i tr~ ummmm~ "you ~
##  5 "i was~ "chick~ "using~ lips ~ "arma~ lust,~ enter~ makin~ <NA>   "you ~
##  6 "hello~ "i tal~ "anyth~ "my a~ "book~ "my g~ "ever~ "i wo~ <NA>   "if y~
##  7 "life'~ "i'm j~ "getti~ its b~ "otis~ "1. s~ "the ~ "oh m~ i don~ if yo~
##  8 "every~ "livin~ being ~ my ey~ "dubs~ "dirt~ "how ~ "reco~ i lov~ "you ~
##  9 love t~ daily ~ "i am ~ my sm~ love ~ masca~ if i ~ <NA>   "i am~ <NA>  
## 10 "<b>ph~ "i am ~ "pissi~ my sm~ "book~ "my d~ who p~ "tota~ "my d~ "if y~
## # ... with 198 more rows
```

---

Same but using a range of columns:

```r
okcupid %>%
  filter(sex == "f", income > 100000) %>%
  select(essay0:essay9)
```

```
## # A tibble: 208 x 10
##    essay0  essay1  essay2  essay3 essay4 essay5 essay6 essay7 essay8 essay9
##    <chr>   <chr>   <chr>   <chr>  <chr>  <chr>  <chr>  <chr>  <chr>  <chr> 
##  1 "i lov~ "being~ "scraw~ "my b~ "musi~ "vege~ "maki~ "kick~ "wow,~ "if y~
##  2 i'm si~ curren~ eating~ my po~ pride~ nothi~ my ne~ eatin~ i'm n~ you w~
##  3 "welco~ "piano~ "singi~ "my h~ "book~ "touc~ diffe~ <NA>   <NA>   you f~
##  4 "pureb~ "by da~ "being~ my ha~ "to s~ "- wa~ my ne~ "i tr~ ummmm~ "you ~
##  5 "i was~ "chick~ "using~ lips ~ "arma~ lust,~ enter~ makin~ <NA>   "you ~
##  6 "hello~ "i tal~ "anyth~ "my a~ "book~ "my g~ "ever~ "i wo~ <NA>   "if y~
##  7 "life'~ "i'm j~ "getti~ its b~ "otis~ "1. s~ "the ~ "oh m~ i don~ if yo~
##  8 "every~ "livin~ being ~ my ey~ "dubs~ "dirt~ "how ~ "reco~ i lov~ "you ~
##  9 love t~ daily ~ "i am ~ my sm~ love ~ masca~ if i ~ <NA>   "i am~ <NA>  
## 10 "<b>ph~ "i am ~ "pissi~ my sm~ "book~ "my d~ who p~ "tota~ "my d~ "if y~
## # ... with 198 more rows
```
…
class: section-slide

# Beyond Basics

---

## A simple answer to the religion question?

```r
okcupid %>% count(religion)
```

```
## # A tibble: 46 x 2
##    religion                                      n
##    <chr>                                     <int>
##  1 agnosticism                                2724
##  2 agnosticism and laughing about it          2496
##  3 agnosticism and somewhat serious about it   642
##  4 agnosticism and very serious about it       314
##  5 agnosticism but not too serious about it   2636
##  6 atheism                                    2175
##  7 atheism and laughing about it              2074
##  8 atheism and somewhat serious about it       848
##  9 atheism and very serious about it           570
## 10 atheism but not too serious about it       1318
## # ... with 36 more rows
```
…
---

### Getting extreme observations with `top_n()` and `top_frac()`

```r
okcupid %>%
  select(sex, age) %>%
  group_by(sex) %>%
  top_n(5, age)
```

```
## # A tibble: 33 x 2
## # Groups:   sex [2]
##    sex     age
##    <chr> <dbl>
##  1 f       110
##  2 m        69
##  3 m        69
##  4 m        69
##  5 m        69
##  6 m        69
##  7 m        69
##  8 m        69
##  9 m        69
## 10 m        69
## # ... with 23 more rows
```
…
