Feature Engineering
…
Processing the results into a nice table:

```r
cv_res_missing <- cv_splits_missing %>%
    pivot_longer(cols = names(lst_recs),
                 names_to = "recipe", values_to = "AUC") %>%
  select(id, recipe, AUC) %>%
  separate(recipe, c("categorical", "income"))

cv_res_missing
```

```
## # A tibble: 40 x 4
##    id     categorical income   AUC
##    <chr>  <chr>       <chr>  <dbl>
##  1 Fold01 unknown     none   0.760
##  2 Fold01 mode        none   0.751
##  3 Fold01 unknown     mean   0.770
##  4 Fold01 mode        mean   0.760
##  5 Fold02 unknown     none   0.676
##  6 Fold02 mode        none   0.670
##  7 Fold02 unknown     mean   0.683
##  8 Fold02 mode        mean   0.675
##  9 Fold03 unknown     none   0.670
## 10 Fold03 mode        none   0.693
## # ... with 30 more rows
```
…
```
## [1] 0.03523718
```

---

### Categorical variables with many levels

```r
ok_tr_eng %>% count(location)
```

```
## # A tibble: 71 x 2
##    location                          n
##    <chr>                         <int>
##  1 alameda, california              53
##  2 albany, california                9
##  3 ashland, california               1
##  4 atherton, california              8
##  5 belmont, california              12
##  6 belvedere tiburon, california     7
##  7 benicia, california              13
##  8 berkeley, california            186
##  9 brisbane, california              4
## 10 burlingame, california           23
## # ... with 61 more rows
```
…
- Manual clustering, using expert knowledge and common sense
- Unsupervised clustering, where it makes sense (e.g. Topic Modeling with [LDA](https://en.wikipedia.org/wiki/Latent_Dirichlet_allocation) on text data)

.insight[
💡 How would you cluster `location`?
]

The `sign` feature is also a great example:

```r
ok_tr_eng %>% count(sign)
```

```
## # A tibble: 47 x 2
##    sign                                           n
##    <chr>                                      <int>
##  1 aquarius                                      61
##  2 aquarius and it&rsquo;s fun to think about    77
##  3 aquarius but it doesn&rsquo;t matter          83
##  4 aries                                         73
##  5 aries and it&rsquo;s fun to think about       68
##  6 aries but it doesn&rsquo;t matter             69
##  7 cancer                                        59
##  8 cancer and it matters a lot                    4
##  9 cancer and it&rsquo;s fun to think about      73
## 10 cancer but it doesn&rsquo;t matter            67
## # ... with 37 more rows
```
…
---

```r
recipe(pets ~ ., data = ok_tr_eng %>% select(pets, location)) %>%
  step_mutate(locationL = factor(str_count(location, "l"))) %>%
  step_dummy(locationL) %>%
  prep(ok_tr_eng) %>%
  juice() %>%
  select(starts_with("location"))
```

```
## # A tibble: 3,000 x 6
##    location locationL_X1 locationL_X2 locationL_X3 locationL_X4
##    <fct>           <dbl>        <dbl>        <dbl>        <dbl>
##  1 mountai~            1            0            0            0
##  2 oakland~            0            1            0            0
##  3 san fra~            1            0            0            0
##  4 san pab~            0            1            0            0
##  5 oakland~            0            1            0            0
##  6 san fra~            1            0            0            0
##  7 san raf~            0            1            0            0
##  8 san fra~            1            0            0            0
##  9 san fra~            1            0            0            0
## 10 alameda~            0            1            0            0
## # ... with 2,990 more rows, and 1 more variable: locationL_X5 <dbl>
```
…
- Feature Hashing (or "hashing trick") does something similar more intelligently
- It lets you choose the hashing algo and no. of features you'd like (the more - the less chance of collision)

```r
library(textrecipes)

recipe(pets ~ ., data = ok_tr_eng %>% select(pets, location)) %>%
  step_tokenize(location) %>%
  step_texthash(location, signed = FALSE, num_terms = 2^4) %>%
  prep(ok_tr_eng) %>%
  juice()
```

```
## # A tibble: 3,000 x 17
##    location_hash01 location_hash02 location_hash03 location_hash04
##              <dbl>           <dbl>           <dbl>           <dbl>
##  1               0               0               1               0
##  2               0               1               1               0
##  3               0               0               1               0
##  4               0               0               1               1
##  5               0               1               1               0
##  6               0               0               1               0
##  7               0               0               1               1
##  8               0               0               1               0
##  9               0               0               1               0
## 10               0               0               1               0
## # ... with 2,990 more rows, and 13 more variables: location_hash05 <dbl>,
## #   location_hash06 <dbl>, location_hash07 <dbl>, location_hash08 <dbl>,
## #   location_hash09 <dbl>, location_hash10 <dbl>, location_hash11 <dbl>,
## #   location_hash12 <dbl>, location_hash13 <dbl>, location_hash14 <dbl>,
## #   location_hash15 <dbl>, location_hash16 <dbl>, pets <fct>
```
…
Thus, changing a categorical variable with many levels into a single numerical variable (or a few for a few classes).

```r
library(embed)

recipe(pets ~ ., data = ok_tr_eng %>% select(pets, location)) %>%
  step_mutate(location2 = location) %>%
  step_lencode_glm(location, outcome = vars(pets)) %>%
  prep(ok_tr_eng) %>%
  juice()
```

```
## # A tibble: 3,000 x 3
##    location pets  location2                
##       <dbl> <fct> <fct>                    
##  1   -0.539 dogs  mountain view, california
##  2   -1.20  dogs  oakland, california      
##  3   -1.84  dogs  san francisco, california
##  4   -2.40  dogs  san pablo, california    
##  5   -1.20  dogs  oakland, california      
##  6   -1.84  dogs  san francisco, california
##  7   -0.571 cats  san rafael, california   
##  8   -1.84  dogs  san francisco, california
##  9   -1.84  dogs  san francisco, california
## 10   -0.930 cats  alameda, california      
## # ... with 2,990 more rows
```
…
The first issue can be somewhat alleviated using a Bayesian approach, *shrinking* somewhat coefficients towards their prior when n is small:

```r
recipe(pets ~ ., data = ok_tr_eng %>% select(pets, location)) %>%
  step_mutate(location2 = location) %>%
  step_lencode_bayes(location, outcome = vars(pets)) %>%
  prep(ok_tr_eng %>% head(100)) %>%
  juice()
```

```
## # A tibble: 100 x 3
##    location pets  location2                
##       <dbl> <fct> <fct>                    
##  1    -1.50 dogs  mountain view, california
##  2    -1.72 dogs  oakland, california      
##  3    -1.99 dogs  san francisco, california
##  4    -1.78 dogs  san pablo, california    
##  5    -1.72 dogs  oakland, california      
##  6    -1.99 dogs  san francisco, california
##  7    -1.35 cats  san rafael, california   
##  8    -1.99 dogs  san francisco, california
##  9    -1.99 dogs  san francisco, california
## 10    -1.36 cats  alameda, california      
## # ... with 90 more rows
```
…
Or, perform PCA on the dummay variables matrix, keeping only a few of the firt PCs as features:

```r
recipe(pets ~ ., data = ok_tr_eng %>% select(pets, location)) %>%
  step_mutate(old_location = location) %>%
  step_dummy(location) %>%
  step_normalize(all_numeric()) %>%
  step_pca(starts_with("location"), num_comp = 10) %>%
  prep(ok_tr_eng) %>%
  juice()
```

```
## # A tibble: 3,000 x 12
##    pets  old_location   PC01    PC02    PC03     PC04     PC05     PC06
##    <fct> <fct>         <dbl>   <dbl>   <dbl>    <dbl>    <dbl>    <dbl>
##  1 dogs  mountain vi~ -1.27  -0.634  -0.985   0.433   -9.37e-2  0.538  
##  2 dogs  oakland, ca~ -1.58   2.66    0.711  -0.0657   9.48e-3 -0.0482 
##  3 dogs  san francis~  1.15   0.0528  0.0410 -0.00550  8.27e-4 -0.00425
##  4 dogs  san pablo, ~ -1.26  -0.617  -0.937   0.372   -7.59e-2  0.427  
##  5 dogs  oakland, ca~ -1.58   2.66    0.711  -0.0657   9.48e-3 -0.0482 
##  6 dogs  san francis~  1.15   0.0528  0.0410 -0.00550  8.27e-4 -0.00425
##  7 cats  san rafael,~ -1.28  -0.678  -1.13    0.720   -2.19e-1  1.50   
##  8 dogs  san francis~  1.15   0.0528  0.0410 -0.00550  8.27e-4 -0.00425
##  9 dogs  san francis~  1.15   0.0528  0.0410 -0.00550  8.27e-4 -0.00425
## 10 cats  alameda, ca~ -0.447 -0.0513 -0.0430  0.00613 -9.29e-4  0.00478
## # ... with 2,990 more rows, and 4 more variables: PC07 <dbl>, PC08 <dbl>,
## #   PC09 <dbl>, PC10 <dbl>
```
…
or_res <- or_res %>%
  bind_cols(
    bind_rows(or_res$fisher_obj)
  ) %>%
  mutate(fdr = p.adjust(p_val, method = "fdr"))

or_res
```

```
## # A tibble: 808 x 7
##    word        cats  dogs fisher_obj          OR  p_val   fdr
##    <chr>      <int> <int> <list>           <dbl>  <dbl> <dbl>
##  1 ability       17    46 <named list [2]> 1.91  0.0369 0.112
##  2 absolutely    18    62 <named list [2]> 1.49  0.167  0.317
##  3 accent        14    38 <named list [2]> 1.90  0.0561 0.148
##  4 action        23    96 <named list [2]> 1.23  0.378  0.559
##  5 active        21   134 <named list [2]> 0.788 0.373  0.557
##  6 activities    16    91 <named list [2]> 0.891 0.791  0.892
##  7 add           17    46 <named list [2]> 1.91  0.0369 0.112
##  8 admit         17    92 <named list [2]> 0.937 0.896  0.950
##  9 adult         13    38 <named list [2]> 1.76  0.0861 0.195
## 10 adventure     25   145 <named list [2]> 0.870 0.595  0.749
## # ... with 798 more rows
```

---

```r
cd_words <- or_res %>%
  arrange(fdr) %>%
  filter(fdr < 10e-4)

cd_words
```

```
## # A tibble: 37 x 7
##    word     cats  dogs fisher_obj           OR    p_val      fdr
##    <chr>   <int> <int> <list>            <dbl>    <dbl>    <dbl>
##  1 cat        55    37 <named list [2]>  8.37  1.06e-21 8.53e-19
##  2 cats       43    21 <named list [2]> 11.3   5.37e-20 2.17e-17
##  3 class      73   151 <named list [2]>  2.71  4.72e-10 9.54e- 8
##  4 href       59   106 <named list [2]>  3.08  4.40e-10 9.54e- 8
##  5 ilink      57   101 <named list [2]>  3.11  6.79e-10 1.10e- 7
##  6 dog        12   247 <named list [2]>  0.228 2.19e- 9 2.95e- 7
##  7 writing    62   127 <named list [2]>  2.69  1.08e- 8 1.25e- 6
##  8 strange    24    28 <named list [2]>  4.53  4.03e- 7 4.07e- 5
##  9 dr         24    29 <named list [2]>  4.37  6.26e- 7 5.62e- 5
## 10 dogs        5   138 <named list [2]>  0.176 1.31e- 6 1.03e- 4
## # ... with 27 more rows
```
…
For stage 3 need to screen out "main effects" features which passed `glmnet`

```r
main_data <- rec_eng_commonsense %>% prep(ok_tr_combined) %>% juice()

mod_lr_res <- mod_lr %>%
  fit(pets ~ ., data = main_data) %>%
  pluck("fit") %>%
  tidy()

mod_lr_res
```

```
## # A tibble: 6,289 x 5
##    term                step  estimate lambda dev.ratio
##    <chr>              <dbl>     <dbl>  <dbl>     <dbl>
##  1 (Intercept)            1 -2.45e-13 0.0889  2.60e-13
##  2 (Intercept)            2 -4.83e- 3 0.0810  9.36e- 3
##  3 w_cat                  2 -6.84e- 3 0.0810  9.36e- 3
##  4 w_my_cat               2 -1.34e- 1 0.0810  9.36e- 3
##  5 w_my_dog               2  6.28e- 2 0.0810  9.36e- 3
##  6 religion_christian     2  6.28e- 2 0.0810  9.36e- 3
##  7 (Intercept)            3 -5.75e- 3 0.0738  2.11e- 2
##  8 w_cat                  3 -2.02e- 2 0.0738  2.11e- 2
##  9 w_cats                 3 -3.38e- 2 0.0738  2.11e- 2
## 10 w_my_cat               3 -2.32e- 1 0.0738  2.11e- 2
## # ... with 6,279 more rows
```
…
---

What are those people with all `ethnicity` columns with zero?

```r
main_data %>% select(starts_with("ethnicity")) %>%
  filter_all(~.x == 0)
```

```
## # A tibble: 978 x 4
##    ethnicity_other ethnicity_white ethnicity_all_else ethnicity_new
##              <dbl>           <dbl>              <dbl>         <dbl>
##  1               0               0                  0             0
##  2               0               0                  0             0
##  3               0               0                  0             0
##  4               0               0                  0             0
##  5               0               0                  0             0
##  6               0               0                  0             0
##  7               0               0                  0             0
##  8               0               0                  0             0
##  9               0               0                  0             0
## 10               0               0                  0             0
## # ... with 968 more rows
```
…
```r
tune_res <- tune_grid(object = mod_en_tune,
                      preprocessor = rec_eng_commonsense,
                      resamples = cv_splits_tune,
                      grid = en_grid,
                      metrics = metric_set(roc_auc),
                      control = control_grid(verbose = TRUE))

collect_metrics_tune_res <- collect_metrics(tune_res)

collect_metrics_tune_res
```

```
## # A tibble: 77 x 7
##     penalty mixture .metric .estimator  mean     n std_err
##       <dbl>   <dbl> <chr>   <chr>      <dbl> <int>   <dbl>
##  1 0.000001     0   roc_auc binary     0.775    10  0.0173
##  2 0.000001     0.1 roc_auc binary     0.768    10  0.0168
##  3 0.000001     0.2 roc_auc binary     0.767    10  0.0167
##  4 0.000001     0.3 roc_auc binary     0.767    10  0.0167
##  5 0.000001     0.4 roc_auc binary     0.766    10  0.0167
##  6 0.000001     0.5 roc_auc binary     0.766    10  0.0167
##  7 0.000001     0.6 roc_auc binary     0.767    10  0.0168
##  8 0.000001     0.7 roc_auc binary     0.767    10  0.0168
##  9 0.000001     0.8 roc_auc binary     0.767    10  0.0168
## 10 0.000001     0.9 roc_auc binary     0.767    10  0.0167
## # ... with 67 more rows
```
…
