Tidy Data Wrangling - Part B
…
---

## The much nicer `migration` table

```r
migration <- read_rds("../data/migration.rds")

migration
```

```
## # A tibble: 3,248 x 236
##    gender  year  code country_dest afghanistan albania algeria
##    <chr>  <dbl> <dbl> <chr>              <dbl>   <dbl>   <dbl>
##  1 men     1990   108 burundi                0       0       0
##  2 men     1990   174 comoros                0       0       0
##  3 men     1990   262 djibouti               0       0       0
##  4 men     1990   232 eritrea                0       0       0
##  5 men     1990   231 ethiopia               0       0       0
##  6 men     1990   404 kenya                  0       0       0
##  7 men     1990   450 madagascar             0       0       0
##  8 men     1990   454 malawi                 0       0       0
##  9 men     1990   480 mauritius              0       0       0
## 10 men     1990   175 mayotte                0       0       0
## # ... with 3,238 more rows, and 229 more variables: american_samoa <dbl>,
## #   andorra <dbl>, angola <dbl>, anguilla <dbl>,
## #   antigua_and_barbuda <dbl>, argentina <dbl>, armenia <dbl>,
## #   aruba <dbl>, australia <dbl>, austria <dbl>, azerbaijan <dbl>,
## #   bahamas <dbl>, bahrain <dbl>, bangladesh <dbl>, barbados <dbl>,
## #   belarus <dbl>, belgium <dbl>, belize <dbl>, benin <dbl>,
## #   bermuda <dbl>, bhutan <dbl>, bolivia_plurinational_state_of <dbl>,
## #   bonaire_sint_eustatius_and_saba <dbl>, bosnia_and_herzegovina <dbl>,
## #   botswana <dbl>, brazil <dbl>, british_virgin_islands <dbl>,
…
---

## `pivot_longer()`

```r
migration_long <- migration %>%
  pivot_longer(cols = -c(1:4),
               names_to = "country_orig",
               values_to = "n_migrants")

migration_long
```

```
## # A tibble: 753,536 x 6
##    gender  year  code country_dest country_orig        n_migrants
##    <chr>  <dbl> <dbl> <chr>        <chr>                    <dbl>
##  1 men     1990   108 burundi      afghanistan                  0
##  2 men     1990   108 burundi      albania                      0
##  3 men     1990   108 burundi      algeria                      0
##  4 men     1990   108 burundi      american_samoa               0
##  5 men     1990   108 burundi      andorra                      0
##  6 men     1990   108 burundi      angola                       0
##  7 men     1990   108 burundi      anguilla                     0
##  8 men     1990   108 burundi      antigua_and_barbuda          0
##  9 men     1990   108 burundi      argentina                    0
## 10 men     1990   108 burundi      armenia                      0
## # ... with 753,526 more rows
```
…
---

## `pivot_wider()`

```r
migration_wide <- migration_long %>%
  pivot_wider(id_cols = 1:4,
              names_from = country_orig,
              values_from = n_migrants)

migration_wide
```

```
## # A tibble: 3,248 x 236
##    gender  year  code country_dest afghanistan albania algeria
##    <chr>  <dbl> <dbl> <chr>              <dbl>   <dbl>   <dbl>
##  1 men     1990   108 burundi                0       0       0
##  2 men     1990   174 comoros                0       0       0
##  3 men     1990   262 djibouti               0       0       0
##  4 men     1990   232 eritrea                0       0       0
##  5 men     1990   231 ethiopia               0       0       0
##  6 men     1990   404 kenya                  0       0       0
##  7 men     1990   450 madagascar             0       0       0
##  8 men     1990   454 malawi                 0       0       0
##  9 men     1990   480 mauritius              0       0       0
## 10 men     1990   175 mayotte                0       0       0
## # ... with 3,238 more rows, and 229 more variables: american_samoa <dbl>,
## #   andorra <dbl>, angola <dbl>, anguilla <dbl>,
## #   antigua_and_barbuda <dbl>, argentina <dbl>, armenia <dbl>,
## #   aruba <dbl>, australia <dbl>, austria <dbl>, azerbaijan <dbl>,
## #   bahamas <dbl>, bahrain <dbl>, bangladesh <dbl>, barbados <dbl>,
## #   belarus <dbl>, belgium <dbl>, belize <dbl>, benin <dbl>,
## #   bermuda <dbl>, bhutan <dbl>, bolivia_plurinational_state_of <dbl>,
## #   bonaire_sint_eustatius_and_saba <dbl>, bosnia_and_herzegovina <dbl>,
## #   botswana <dbl>, brazil <dbl>, british_virgin_islands <dbl>,
…
---

## Some more useful Tidying up verbs

Remember?

```r
table3 <- read_rds("../data/tidy_tables.rds")$table3

table3
```

```
## # A tibble: 315 x 3
##    religion      yob pct_straight
##    <chr>       <dbl> <chr>       
##  1 atheist      1950 26/29       
##  2 buddhist     1950 6/6         
##  3 christian    1950 28/32       
##  4 hindu        1950 0/0         
##  5 jewish       1950 21/24       
##  6 muslim       1950 0/0         
##  7 unspecified  1950 71/76       
##  8 atheist      1951 31/33       
##  9 buddhist     1951 11/11       
## 10 christian    1951 23/24       
## # ... with 305 more rows
```

---

## `separate()`

```r
table3_tidy <- table3 %>%
  separate(pct_straight, into = c("straight", "total"), sep = "/")

table3_tidy
```

```
## # A tibble: 315 x 4
##    religion      yob straight total
##    <chr>       <dbl> <chr>    <chr>
##  1 atheist      1950 26       29   
##  2 buddhist     1950 6        6    
##  3 christian    1950 28       32   
##  4 hindu        1950 0        0    
##  5 jewish       1950 21       24   
##  6 muslim       1950 0        0    
##  7 unspecified  1950 71       76   
##  8 atheist      1951 31       33   
##  9 buddhist     1951 11       11   
## 10 christian    1951 23       24   
## # ... with 305 more rows
```

---

## `unite()`

(Though see a much more generalizable approach with `purrr`)

```r
table3_tidy %>%
  unite(col = "pct_straight", straight, total, sep = "/")
```

```
## # A tibble: 315 x 3
##    religion      yob pct_straight
##    <chr>       <dbl> <chr>       
##  1 atheist      1950 26/29       
##  2 buddhist     1950 6/6         
##  3 christian    1950 28/32       
##  4 hindu        1950 0/0         
##  5 jewish       1950 21/24       
##  6 muslim       1950 0/0         
##  7 unspecified  1950 71/76       
##  8 atheist      1951 31/33       
##  9 buddhist     1951 11/11       
## 10 christian    1951 23/24       
## # ... with 305 more rows
```
…
okcupid %>% select(essay0) %>% map_dfc(essay0_features)
```

```
## # A tibble: 59,946 x 3
##    essay0_love essay0_obama essay0_ser_rel
##    <lgl>       <lgl>        <lgl>         
##  1 TRUE        FALSE        FALSE         
##  2 TRUE        FALSE        FALSE         
##  3 TRUE        FALSE        FALSE         
##  4 FALSE       FALSE        FALSE         
##  5 FALSE       FALSE        FALSE         
##  6 TRUE        FALSE        FALSE         
##  7 TRUE        FALSE        FALSE         
##  8 NA          NA           NA            
##  9 NA          NA           NA            
## 10 TRUE        FALSE        FALSE         
## # ... with 59,936 more rows
```
…
---

Or if you want those features as additional columns, you could bind them with `bind_cols()`:

```r
okcupid %>%
  bind_cols(
    okcupid %>% select(essay0) %>% map_dfc(essay0_features)
  ) %>%
  select(age, sex, starts_with("essay0"))
```

```
## # A tibble: 59,946 x 6
##      age sex   essay0               essay0_love essay0_obama essay0_ser_rel
##    <dbl> <chr> <chr>                <lgl>       <lgl>        <lgl>         
##  1    22 m     "about me:<br />\n<~ TRUE        FALSE        FALSE         
##  2    35 m     "i am a chef: this ~ TRUE        FALSE        FALSE         
##  3    38 m     "i'm not ashamed of~ TRUE        FALSE        FALSE         
##  4    23 m     i work in a library~ FALSE       FALSE        FALSE         
##  5    29 m     "hey how's it going~ FALSE       FALSE        FALSE         
##  6    29 m     "i'm an australian ~ TRUE        FALSE        FALSE         
##  7    32 f     "life is about the ~ TRUE        FALSE        FALSE         
##  8    31 f     <NA>                 NA          NA           NA            
##  9    24 f     <NA>                 NA          NA           NA            
## 10    37 m     "my names jake.<br ~ TRUE        FALSE        FALSE         
## # ... with 59,936 more rows
```
…
