Topics in Classification
…
mod_fit <- mod_spec %>%
  fit(playlist_genre ~ ., data = sptfy_tr_small %>%
        select(-track_id, -track_name, -track_artist))

mod_pred <- mod_fit %>%
  predict(new_data = sptfy_tr_large, type = "prob")

mod_pred
```

```
## # A tibble: 18,701 x 6
##    .pred_edm .pred_latin .pred_pop .pred_rap .pred_rnb .pred_rock
##        <dbl>       <dbl>     <dbl>     <dbl>     <dbl>      <dbl>
##  1   0.00390     0.893     0.0103    0.00293   0.0798     0.00991
##  2   0.00522     0.00160   0.112     0.00188   0.00116    0.878  
##  3   0.593       0.183     0.181     0.0294    0.00658    0.00661
##  4   0.150       0.358     0.0570    0.292     0.0808     0.0621 
##  5   0.434       0.173     0.142     0.152     0.0413     0.0569 
##  6   0.0752      0.0382    0.0382    0.781     0.0334     0.0344 
##  7   0.0109      0.0205    0.860     0.00904   0.00922    0.0904 
##  8   0.152       0.00578   0.0118    0.287     0.532      0.0128 
##  9   0.0680      0.00579   0.859     0.0463    0.0103     0.0101 
## 10   0.0159      0.0661    0.00784   0.891     0.0111     0.00763
## # ... with 18,691 more rows
```
…
---

```r
mod_unc <- mod_pred %>% pmap_dfr(uncertainty)

mod_unc
```

```
## # A tibble: 18,701 x 3
##       lc margin entropy
##    <dbl>  <dbl>   <dbl>
##  1 0.893 0.813   -0.434
##  2 0.878 0.766   -0.417
##  3 0.593 0.410   -1.10 
##  4 0.358 0.0664  -1.55 
##  5 0.434 0.262   -1.52 
##  6 0.781 0.705   -0.867
##  7 0.860 0.770   -0.562
##  8 0.532 0.245   -1.12 
##  9 0.859 0.791   -0.579
## 10 0.891 0.825   -0.473
## # ... with 18,691 more rows
```
…
  mod_fit %>%
    predict(new_data = te)
}
mod_pred <- map_dfc(1:6, fit_sub_model,
                    tr = sptfy_tr_small, te = sptfy_tr_large)
mod_pred
```

```
## # A tibble: 18,701 x 6
##    .pred_class .pred_class1 .pred_class2 .pred_class3 .pred_class4
##    <fct>       <fct>        <fct>        <fct>        <fct>       
##  1 rnb         rnb          rock         latin        rap         
##  2 edm         rap          rnb          edm          rock        
##  3 latin       pop          latin        edm          latin       
##  4 pop         rock         edm          pop          rap         
##  5 edm         edm          rnb          edm          rap         
##  6 rap         rap          pop          edm          rap         
##  7 rnb         pop          pop          rnb          edm         
##  8 pop         rnb          latin        rap          rock        
##  9 edm         rock         pop          rap          pop         
## 10 latin       edm          rnb          rnb          rap         
## # ... with 18,691 more rows, and 1 more variable: .pred_class5 <fct>
```
…
sptfy_tr_large_with_qbc <- sptfy_tr_large %>%
  bind_cols(mod_qbc) %>%
  select(track_name, track_artist, playlist_genre,
         starts_with(".pred"), vote_entropy)

sptfy_tr_large_with_qbc %>%
  top_n(-10, vote_entropy) %>%
  arrange(vote_entropy) %>%
  select(starts_with(".pred"))
```

```
## # A tibble: 197 x 6
##    .pred_class .pred_class1 .pred_class2 .pred_class3 .pred_class4
##    <fct>       <fct>        <fct>        <fct>        <fct>       
##  1 rnb         latin        edm          rock         pop         
##  2 rap         pop          rock         latin        rnb         
##  3 pop         edm          rnb          rock         rap         
##  4 rap         rnb          pop          latin        rock        
##  5 pop         rock         edm          rnb          latin       
##  6 edm         rock         pop          rnb          rap         
##  7 rnb         pop          latin        rock         rap         
##  8 pop         edm          rap          rnb          latin       
##  9 rnb         rock         rap          latin        edm         
## 10 latin       pop          edm          rnb          rap         
## # ... with 187 more rows, and 1 more variable: .pred_class5 <fct>
```
…
